﻿{
    "_id": "course",
    "_type": "course",
    "title": "動画コンテンツのモバイル向け再編集テクニック",
    "displayTitle": "動画コンテンツのモバイル向け再編集テクニック",
    "body": "",
    "_buttons": {
        "_submit": {
            "buttonText": "送信",
            "ariaLabel": "こちらをクリックして回答を送信します。"
        },
        "_reset": {
            "buttonText": "リセット",
            "ariaLabel": "こちらをクリックして問題をリセットします。"
        },
        "_showCorrectAnswer": {
            "buttonText": "正解",
            "ariaLabel": "こちらをクリックして正解を表示します。"
        },
        "_hideCorrectAnswer": {
            "buttonText": "自分の解答",
            "ariaLabel": "こちらをクリックして自分の解答を表示します。"
        },
        "_showFeedback": {
            "buttonText": "フィードバックを表示",
            "ariaLabel": "こちらをクリックして問題のフィードバックを再度表示します。"
        },
        "remainingAttemptsText": "残りの試行回数",
        "remainingAttemptText": "最後の試行",
        "disabledAriaLabel": "現在、このボタンは無効です。"
    },
    "_globals": {
        "_components": {
            "_accordion": {
                "ariaRegion": "この要素は、表示テキストが含まれた折り畳み式のコンテンツパネルからなるアコーディオンです。アイテムのタイトルを選択して、コンテンツパネルの表示/非表示を切り替えます。",
                "instruction": ""
            },
            "_blank": {
                "ariaRegion": "",
                "instruction": ""
            },
            "_gmcq": {
                "ariaRegion": "このコンポーネントは、図式を使った選択問題です。選択肢を選んだら、下の[送信]ボタンを選択します。",
                "instruction": ""
            },
            "_graphic": {
                "ariaRegion": "",
                "instruction": ""
            },
            "_hotGraphic": {
                "ariaRegion": "以下は、画像上のホットスポットを選択できる要素です。ホットスポットを1つ選ぶと、画像とテキストを含むポップアップが表示されます。[閉じる]ボタンを選択してポップアップを閉じます。",
                "instruction": ""
            },
            "_matching": {
                "ariaRegion": "この問題要素では、下のドロップダウンリストから一致する解答を選択する必要があります。回答を選んだら、[送信]ボタンを選択します。",
                "instruction": ""
            },
            "_mcq": {
                "ariaRegion": "このコンポーネントは選択問題です。選択肢を選んだら、下の[送信]ボタンを選択します。",
                "instruction": ""
            },
            "_media": {
                "ariaRegion": "これは動画を再生するメディアコンポーネントです。[再生/一時停止]ボタンを選択して視聴します。また、下のリンクを選択するとスクリプトが表示されます。",
                "instruction": ""
            },
            "_narrative": {
                "ariaRegion": "このページでは、テキストが添えられた画像ギャラリーが表示されます。画像を前後に移動する矢印ボタンを使うと、ストーリーが展開します。",
                "instruction": ""
            },
            "_slider": {
                "ariaRegion": "このコンポーネントでは、該当する値を選んで問題に答える必要があります。値を選んだら、下の[送信]ボタンを選択します。",
                "instruction": ""
            },
            "_text": {
                "ariaRegion": "",
                "instruction": ""
            },
            "_textInput": {
                "ariaRegion": "この問題コンポーネントでは、テキストボックスに回答を入力する必要があります。問題に答えたら、下の[送信]ボタンを選択します。",
                "instruction": ""
            }
        },
        "_extensions": {
            "_pageLevelProgress": {
                "pageLevelProgress": "ページセクション",
                "pageLevelProgressEnd": "ページセクション一覧の末尾に達しました。",
                "pageLevelProgressIndicatorBar": "進捗バーこちらを選択すると進行状況が表示され、項目を選択するとそこに移動します。次のアイテムを完了しました:  ",
                "optionalContent": "任意のコンテンツ"
            }
        },
        "_menu": {
            "_boxmenu": {
                "ariaRegion": "メニュー",
                "menuItem": "メニュー項目。",
                "menuEnd": "メニューの末尾に達しました。"
            }
        },
        "_accessibility": {
            "_accessibilityToggleTextOn": "アクセシビリティを有効にしますか？",
            "_accessibilityToggleTextOff": "アクセシビリティを無効にしますか？",
            "_accessibilityInstructions": {
                "touch": "利用手順。左にスワイプすると次のアイテムに移動します。右にスワイプすると前のアイテムに戻ります。ダブルタップすると選択できます。2本指で上にスライドするとページ上部に移動します。",
                "notouch": "利用手順。Tabを押して次に進みます。ShiftとTabを同時に押すと前に戻ります。Enterを押すと選択できます。Escを押すとページ上部に移動します。",
                "ipad": "タッチスクリーンの場合の利用手順。左にスワイプすると次のアイテムに移動します。右にスワイプすると前のアイテムに戻ります。ダブルタップすると選択できます。2本指で上にスライドするとページ上部に移動します。キーボードを利用する場合の利用手順。右矢印を押すと次のアイテムに移動します。左矢印を押すと前のアイテムに戻ります。上下の矢印を同時に押すと選択できます。"
            },
            "_ariaLabels": {
                "navigation": "コースのナビゲーションバー",
                "menuLoaded": "メニューが読み込まれました。",
                "menu": "メニュー",
                "page": "ページ",
                "pageLoaded": "ページが読み込まれました。",
                "pageEnd": "ページの末尾に達しました。",
                "previous": "戻る",
                "navigationBack": "戻る",
                "navigationDrawer": "コースのリソースを開きます。",
                "close": "閉じる",
                "closeDrawer": "ドロワーを閉じる",
                "closeResources": "リソースを閉じる",
                "resourcesEnd": "リソース一覧の末尾に達しました。",
                "drawerBack": "ドロワーに戻る",
                "drawer": "サイドドロワーの一番上",
                "closePopup": "ポップアップを閉じる",
                "next": "次へ",
                "done": "完了",
                "complete": "完了",
                "incomplete": "未修了",
                "incorrect": "誤",
                "correct": "正",
                "locked": "ロックされています",
                "accessibilityToggleButton": "このボタンを選択すると、アクセシビリティのオンとオフを設定できます。",
                "feedbackPopUp": "ポップアップが開きました。",
                "menuBack": "メニューに戻る",
                "visited": "アクセス済み"
            }
        }
    },
    "_pageLevelProgress": {
        "_isEnabled": true,
        "_altText": "件の要素をこのページで完了しました。"
    },
    "_bookmarking": {
        "_isEnabled": true,
        "_level": "component",
        "title": "ブックマーク",
        "body": "前回中断したところから始めますか？",
        "_buttons": {
            "yes": "はい",
            "no": "いいえ"
        }
    },
    "_analytics": {
        "_isEnabled": true
    },
    "_latestTrackingId": 47
}